{
  "name": "gabbagabbahey",
  "title": "Gabba Gabba - We Accept You We Accept You One of Us",
  "description": "A module designed to specifically lockdown key functions of a foundry demo server to allow others to use it as a GM",
  "version": "0.5.1",
  "author": "Anathema",
  "authors": [
    {
      "name": "Anathema",
      "email": "sm.anathema@gmail.com",
      "url": "https://gitlab.com/anathemamask/gabbagabbahey"
    }
  ],
  "scripts": "", 
  "esmodules": ["gabbagabbahey.js"],
  "styles": ["oneofus.css"],
	"minimumCoreVersion": "0.6.0",
	"compatibleCoreVersion": "0.7.9",
  "url": "https://gitlab.com/anathemamask/gabbagabbahey",
  "manifest": "https://gitlab.com/anathemamask/gabbagabbahey/-/raw/master/module.json",
  "download": "https://gitlab.com/anathemamask/gabbagabbahey/-/archive/0.5.1/gabbagabbahey-0.5.1.zip",
  "license": "",
  "readme": "README.md",
  "bugs": "",
  "changelog": ""
}